<?xml version="1.0" encoding="UTF-8"?>
<svg version="1.1" viewBox="0 0 1515 1515" xmlns="http://www.w3.org/2000/svg" xmlns:cc="http://creativecommons.org/ns#" xmlns:dc="http://purl.org/dc/elements/1.1/" xmlns:rdf="http://www.w3.org/1999/02/22-rdf-syntax-ns#">
<metadata>
<rdf:RDF>
<cc:Work rdf:about="">
<dc:format>image/svg+xml</dc:format>
<dc:type rdf:resource="http://purl.org/dc/dcmitype/StillImage"/>
<dc:title/>
</cc:Work>
</rdf:RDF>
</metadata>
<path d="m363 1387 91-91-235-235-91 91v107h128v128zm523-928c0-13-9-22-22-22-6 0-12 2-17 7l-542 542c-5 5-7 11-7 17 0 13 9 22 22 22 6 0 12-2 17-7l542-542c5-5 7-11 7-17zm-54-192 416 416-832 832h-416v-416zm683 96c0 34-14 67-37 90l-166 166-416-416 166-165c23-24 56-38 90-38s67 14 91 38l235 234c23 24 37 57 37 91z"/>
</svg>

