{
  "defaultSeverity": "error",
  "extends": [
    "tslint:recommended"
  ],
  "jsRules": {},
  "rules": {
    "no-inferrable-types": true,
    "eofline": true,
    "indent": [
      true,
      "spaces"
    ],
    "max-line-length": [
      true,
      140
    ],
    "no-unused-variable": false,
    "no-floating-promises": true,
    "only-arrow-functions": true,
    "object-literal-sort-keys": true,
    "increment-decrement": true,
    "file-name-casing": [
      true,
      {
        "Error.ts": "ignore",
        ".ts": "snake-case"
      }
    ],
    "prefer-switch": true,
    "prefer-template": true,
    "semicolon": true,
    "no-trailing-whitespace": true,
    "quotemark": [
      true,
      "double",
      "avoid-escape",
      "avoid-template"
    ],
    "prefer-const": true,
    "prefer-readonly": true,
    "no-console": [
      true,
      "log"
    ]
  },
  "rulesDirectory": []
}
